0:0:0:0:0:0:0:1 - - [08/Dec/2017:09:50:31 +0200] "GET /CRM/css/lib/growl/angular-growl.min.css HTTP/1.1" 200 19786
0:0:0:0:0:0:0:1 - - [08/Dec/2017:09:50:31 +0200] "GET /CRM/css/lib/skins/skin-blue.min.css HTTP/1.1" 200 3037
0:0:0:0:0:0:0:1 - - [08/Dec/2017:09:50:31 +0200] "GET /CRM/js/lib/xregexp-all-min.js HTTP/1.1" 200 62473
0:0:0:0:0:0:0:1 - - [08/Dec/2017:09:50:31 +0200] "GET /CRM/css/flags.css HTTP/1.1" 200 20668
0:0:0:0:0:0:0:1 - - [08/Dec/2017:09:50:32 +0200] "GET /CRM/css/style.css HTTP/1.1" 200 40010
0:0:0:0:0:0:0:1 - - [08/Dec/2017:09:50:32 +0200] "GET /CRM/js/lib/angular-ui-tree.min.css HTTP/1.1" 200 1091
0:0:0:0:0:0:0:1 - - [08/Dec/2017:09:50:32 +0200] "GET /CRM/js/lib/jquery.min.js HTTP/1.1" 200 84320
0:0:0:0:0:0:0:1 - - [08/Dec/2017:09:50:32 +0200] "GET /CRM/js/lib/angular.min.js HTTP/1.1" 200 160048
0:0:0:0:0:0:0:1 - - [08/Dec/2017:09:50:32 +0200] "GET /CRM/js/lib/font-awesome-4.6.3/css/font-awesome.min.css HTTP/1.1" 200 29063
0:0:0:0:0:0:0:1 - - [08/Dec/2017:09:50:32 +0200] "GET /CRM/js/lib/angular-ui-router.min.js HTTP/1.1" 200 28684
0:0:0:0:0:0:0:1 - - [08/Dec/2017:09:50:32 +0200] "GET /CRM/js/lib/angular-sanitize.min.js HTTP/1.1" 200 5861
0:0:0:0:0:0:0:1 - - [08/Dec/2017:09:50:32 +0200] "GET /CRM/js/lib/angular-animate.min.js HTTP/1.1" 200 25717
0:0:0:0:0:0:0:1 - - [08/Dec/2017:09:50:32 +0200] "GET /CRM/js/lib/angular-ui-tree.min.js HTTP/1.1" 200 21444
0:0:0:0:0:0:0:1 - - [08/Dec/2017:09:50:32 +0200] "GET /CRM/js/lib/angular-file-upload-shim.js HTTP/1.1" 200 12504
0:0:0:0:0:0:0:1 - - [08/Dec/2017:09:50:32 +0200] "GET /CRM/js/lib/angular-recaptcha.js HTTP/1.1" 200 6837
0:0:0:0:0:0:0:1 - - [08/Dec/2017:09:50:32 +0200] "GET /CRM/js/lib/angular-file-upload.js HTTP/1.1" 200 9797
0:0:0:0:0:0:0:1 - - [08/Dec/2017:09:50:32 +0200] "GET /CRM/js/lib/AdminLTE.js HTTP/1.1" 200 22952
0:0:0:0:0:0:0:1 - - [08/Dec/2017:09:50:32 +0200] "GET /CRM/js/lib/ui-bootstrap-tpls.js HTTP/1.1" 200 122567
0:0:0:0:0:0:0:1 - - [08/Dec/2017:09:50:32 +0200] "GET /CRM/js/lib/growl/angular-growl.min.js HTTP/1.1" 200 7077
0:0:0:0:0:0:0:1 - - [08/Dec/2017:09:50:32 +0200] "GET /CRM/js/lib/datetimepicker/datetime-picker.tpls.js HTTP/1.1" 200 2753
0:0:0:0:0:0:0:1 - - [08/Dec/2017:09:50:32 +0200] "GET /CRM/js/lib/datetimepicker/datetime-picker.min.js HTTP/1.1" 200 12188
0:0:0:0:0:0:0:1 - - [08/Dec/2017:09:50:32 +0200] "GET /CRM/js/lib/tinymce.min.js HTTP/1.1" 200 1951
0:0:0:0:0:0:0:1 - - [08/Dec/2017:09:50:32 +0200] "GET /CRM/js/lib/fingerprint.js HTTP/1.1" 200 9673
0:0:0:0:0:0:0:1 - - [08/Dec/2017:09:50:32 +0200] "GET /CRM/js/menu.js HTTP/1.1" 200 4961
0:0:0:0:0:0:0:1 - - [08/Dec/2017:09:50:32 +0200] "GET /CRM/js/lib/tinymce/tinymce.min.js HTTP/1.1" 200 609796
0:0:0:0:0:0:0:1 - - [08/Dec/2017:09:50:32 +0200] "GET /CRM/js/_settings.js HTTP/1.1" 200 2164
0:0:0:0:0:0:0:1 - - [08/Dec/2017:09:50:32 +0200] "GET /CRM/js/app.js HTTP/1.1" 200 56346
0:0:0:0:0:0:0:1 - - [08/Dec/2017:09:50:32 +0200] "GET /CRM/js/functions.js HTTP/1.1" 200 11465
0:0:0:0:0:0:0:1 - - [08/Dec/2017:09:50:32 +0200] "GET /CRM/js/filters.js HTTP/1.1" 200 897
0:0:0:0:0:0:0:1 - - [08/Dec/2017:09:50:32 +0200] "GET /CRM/js/controllers.js HTTP/1.1" 200 23043
0:0:0:0:0:0:0:1 - - [08/Dec/2017:09:50:32 +0200] "GET /CRM/ HTTP/1.1" 200 5548
0:0:0:0:0:0:0:1 - - [08/Dec/2017:09:50:32 +0200] "GET /CRM/js/controllers-administrator.js HTTP/1.1" 200 12883
0:0:0:0:0:0:0:1 - - [08/Dec/2017:09:50:32 +0200] "GET /CRM/js/directives.js HTTP/1.1" 200 26182
0:0:0:0:0:0:0:1 - - [08/Dec/2017:09:50:32 +0200] "GET /CRM/js/controllers-admin.js HTTP/1.1" 200 4623
0:0:0:0:0:0:0:1 - - [08/Dec/2017:09:50:32 +0200] "GET /CRM/js/controllers-product.js HTTP/1.1" 200 35938
0:0:0:0:0:0:0:1 - - [08/Dec/2017:09:50:32 +0200] "GET /CRM/css/lib/AdminLTE.min.css HTTP/1.1" 200 89933
0:0:0:0:0:0:0:1 - - [08/Dec/2017:09:50:32 +0200] "GET /CRM/js/controllers-marketing.js HTTP/1.1" 200 23413
0:0:0:0:0:0:0:1 - - [08/Dec/2017:09:50:32 +0200] "GET /CRM/js/controllers-investment.js HTTP/1.1" 200 5547
0:0:0:0:0:0:0:1 - - [08/Dec/2017:09:50:32 +0200] "GET /CRM/js/controllers-user.js HTTP/1.1" 200 66310
0:0:0:0:0:0:0:1 - - [08/Dec/2017:09:50:32 +0200] "GET /CRM/js/controllers-pending-withdraw.js HTTP/1.1" 200 13620
0:0:0:0:0:0:0:1 - - [08/Dec/2017:09:50:32 +0200] "GET /CRM/js/controllers-transaction.js HTTP/1.1" 200 8306
0:0:0:0:0:0:0:1 - - [08/Dec/2017:09:50:32 +0200] "GET /CRM/js/controllers-content.js HTTP/1.1" 200 19438
0:0:0:0:0:0:0:1 - - [08/Dec/2017:09:50:32 +0200] "GET /CRM/html/templates/template.html HTTP/1.1" 200 28
0:0:0:0:0:0:0:1 - - [08/Dec/2017:09:50:32 +0200] "GET /CRM/html/templates/login.html HTTP/1.1" 200 777
0:0:0:0:0:0:0:1 - - [08/Dec/2017:09:50:33 +0200] "GET /CRM/js/lib/font-awesome-4.6.3/fonts/fontawesome-webfont.woff2?v=4.6.3 HTTP/1.1" 200 71896
0:0:0:0:0:0:0:1 - - [08/Dec/2017:09:50:33 +0200] "POST /CRM/app/init HTTP/1.1" 200 79
0:0:0:0:0:0:0:1 - - [08/Dec/2017:09:50:33 +0200] "POST /CRM/message/getMessageResources HTTP/1.1" 200 35374
0:0:0:0:0:0:0:1 - - [08/Dec/2017:11:27:57 +0200] "GET / HTTP/1.1" 200 5551
0:0:0:0:0:0:0:1 - - [08/Dec/2017:11:27:57 +0200] "GET /js/lib/malihu/jquery.mCustomScrollbar.min.css HTTP/1.1" 200 42839
0:0:0:0:0:0:0:1 - - [08/Dec/2017:11:27:57 +0200] "GET /css/flags.css?version=20171205132250 HTTP/1.1" 200 20668
0:0:0:0:0:0:0:1 - - [08/Dec/2017:11:27:57 +0200] "GET /css/style.css?version=20171205132250 HTTP/1.1" 200 264987
0:0:0:0:0:0:0:1 - - [08/Dec/2017:11:27:57 +0200] "GET /css/style-mobile.css?version=20171205132250 HTTP/1.1" 200 159028
0:0:0:0:0:0:0:1 - - [08/Dec/2017:11:27:57 +0200] "GET /js/lib/xregexp-all-min.js HTTP/1.1" 200 62473
0:0:0:0:0:0:0:1 - - [08/Dec/2017:11:27:57 +0200] "GET /js/lib/pdf.js-viewer/viewer.css HTTP/1.1" 200 40901
0:0:0:0:0:0:0:1 - - [08/Dec/2017:11:27:57 +0200] "GET /js/lib/angular-ui-tree.min.css HTTP/1.1" 200 1071
0:0:0:0:0:0:0:1 - - [08/Dec/2017:11:27:57 +0200] "GET /js/lib/angularjs-slider/rzslider.min.css HTTP/1.1" 200 3536
0:0:0:0:0:0:0:1 - - [08/Dec/2017:11:27:57 +0200] "GET /js/lib/font-awesome-4.6.3/css/font-awesome.min.css HTTP/1.1" 200 29063
0:0:0:0:0:0:0:1 - - [08/Dec/2017:11:27:57 +0200] "GET /js/lib/slick-carousel/slick.css HTTP/1.1" 200 1729
0:0:0:0:0:0:0:1 - - [08/Dec/2017:11:27:57 +0200] "GET /js/lib/pdf.js-viewer/pdf.js HTTP/1.1" 200 584514
0:0:0:0:0:0:0:1 - - [08/Dec/2017:11:27:57 +0200] "GET /js/lib/angular-sanitize.min.js HTTP/1.1" 200 5861
0:0:0:0:0:0:0:1 - - [08/Dec/2017:11:27:57 +0200] "GET /js/lib/angular-ui-router.min.js HTTP/1.1" 200 33848
0:0:0:0:0:0:0:1 - - [08/Dec/2017:11:27:57 +0200] "GET /js/lib/jquery.min.js HTTP/1.1" 200 84320
0:0:0:0:0:0:0:1 - - [08/Dec/2017:11:27:57 +0200] "GET /js/lib/angular.min.js HTTP/1.1" 200 160048
0:0:0:0:0:0:0:1 - - [08/Dec/2017:11:27:57 +0200] "GET /js/lib/angular-cookies.min.js HTTP/1.1" 200 1447
0:0:0:0:0:0:0:1 - - [08/Dec/2017:11:27:57 +0200] "GET /js/lib/angular-touch.min.js HTTP/1.1" 200 4038
0:0:0:0:0:0:0:1 - - [08/Dec/2017:11:27:57 +0200] "GET /js/lib/angular-file-upload.js HTTP/1.1" 200 9797
0:0:0:0:0:0:0:1 - - [08/Dec/2017:11:27:57 +0200] "GET /js/lib/angular-animate.min.js HTTP/1.1" 200 25717
0:0:0:0:0:0:0:1 - - [08/Dec/2017:11:27:57 +0200] "GET /js/lib/angular-ui-tree.min.js HTTP/1.1" 200 19640
0:0:0:0:0:0:0:1 - - [08/Dec/2017:11:27:57 +0200] "GET /js/lib/angular-file-upload-shim.js HTTP/1.1" 200 12504
0:0:0:0:0:0:0:1 - - [08/Dec/2017:11:27:57 +0200] "GET /js/lib/angular-recaptcha.js HTTP/1.1" 200 6837
0:0:0:0:0:0:0:1 - - [08/Dec/2017:11:27:57 +0200] "GET /js/lib/scrollbars.min.js HTTP/1.1" 200 1173
0:0:0:0:0:0:0:1 - - [08/Dec/2017:11:27:57 +0200] "GET /js/lib/malihu/jquery.mCustomScrollbar.concat.min.js HTTP/1.1" 200 45479
0:0:0:0:0:0:0:1 - - [08/Dec/2017:11:27:57 +0200] "GET /js/lib/slick-carousel/angular-slick.min.js HTTP/1.1" 200 5346
0:0:0:0:0:0:0:1 - - [08/Dec/2017:11:27:57 +0200] "GET /js/lib/slick-carousel/slick.min.js HTTP/1.1" 200 41953
0:0:0:0:0:0:0:1 - - [08/Dec/2017:11:27:57 +0200] "GET /js/lib/ui-bootstrap-tpls.js HTTP/1.1" 200 122567
0:0:0:0:0:0:0:1 - - [08/Dec/2017:11:27:57 +0200] "GET /js/lib/datetimepicker/datetime-picker.tpls.js HTTP/1.1" 200 2753
0:0:0:0:0:0:0:1 - - [08/Dec/2017:11:27:57 +0200] "GET /js/lib/fingerprint.js HTTP/1.1" 200 9673
0:0:0:0:0:0:0:1 - - [08/Dec/2017:11:27:57 +0200] "GET /js/lib/datetimepicker/datetime-picker.min.js HTTP/1.1" 200 12188
0:0:0:0:0:0:0:1 - - [08/Dec/2017:11:27:57 +0200] "GET /js/lib/angularjs-slider/rzslider.min.js HTTP/1.1" 200 33513
0:0:0:0:0:0:0:1 - - [08/Dec/2017:11:27:57 +0200] "GET /js/anycapital.js?version=20171205132250 HTTP/1.1" 200 369757
0:0:0:0:0:0:0:1 - - [08/Dec/2017:11:27:58 +0200] "GET /js/lib/jquery.ba-throttle-debounce.min.js HTTP/1.1" 200 731
0:0:0:0:0:0:0:1 - - [08/Dec/2017:11:27:58 +0200] "GET /js/lib/pdf.js-viewer/angular-pdfjs-viewer.js HTTP/1.1" 200 26440
0:0:0:0:0:0:0:1 - - [08/Dec/2017:11:27:59 +0200] "GET /images/gray-bg.png HTTP/1.1" 200 935
0:0:0:0:0:0:0:1 - - [08/Dec/2017:11:27:59 +0200] "POST /app/init HTTP/1.1" 200 8362
0:0:0:0:0:0:0:1 - - [08/Dec/2017:11:28:00 +0200] "POST /filters/get HTTP/1.1" 200 235
0:0:0:0:0:0:0:1 - - [08/Dec/2017:11:28:00 +0200] "POST /message/getMessageResources HTTP/1.1" 200 699855
0:0:0:0:0:0:0:1 - - [08/Dec/2017:11:28:00 +0200] "GET /html/templates/template.html HTTP/1.1" 200 686
0:0:0:0:0:0:0:1 - - [08/Dec/2017:11:28:00 +0200] "GET /html/templates/index.html HTTP/1.1" 200 1760
0:0:0:0:0:0:0:1 - - [08/Dec/2017:11:28:00 +0200] "GET /html/templates/footer.html HTTP/1.1" 200 1611
0:0:0:0:0:0:0:1 - - [08/Dec/2017:11:28:00 +0200] "GET /html/templates/header.html HTTP/1.1" 200 1905
0:0:0:0:0:0:0:1 - - [08/Dec/2017:11:28:00 +0200] "GET /html/templates/menu.html HTTP/1.1" 200 1819
0:0:0:0:0:0:0:1 - - [08/Dec/2017:11:28:00 +0200] "GET /html/templates/products/products-list.html HTTP/1.1" 200 4828
0:0:0:0:0:0:0:1 - - [08/Dec/2017:11:28:00 +0200] "GET /html/templates/slides/index.html HTTP/1.1" 200 488
0:0:0:0:0:0:0:1 - - [08/Dec/2017:11:28:00 +0200] "GET /images/how-to-icons/04.svg HTTP/1.1" 200 1044
0:0:0:0:0:0:0:1 - - [08/Dec/2017:11:28:00 +0200] "GET /images/how-to-icons/01.svg HTTP/1.1" 200 630
0:0:0:0:0:0:0:1 - - [08/Dec/2017:11:28:00 +0200] "GET /images/how-to-icons/05.svg HTTP/1.1" 200 1773
0:0:0:0:0:0:0:1 - - [08/Dec/2017:11:28:00 +0200] "GET /images/how-to-icons/03.svg HTTP/1.1" 200 1699
0:0:0:0:0:0:0:1 - - [08/Dec/2017:11:28:00 +0200] "GET /images/how-to-icons/02.svg HTTP/1.1" 200 1626
0:0:0:0:0:0:0:1 - - [08/Dec/2017:11:28:00 +0200] "GET /images/gray-bg.png HTTP/1.1" 200 935
0:0:0:0:0:0:0:1 - - [08/Dec/2017:11:28:00 +0200] "GET /images/arrow-up.png HTTP/1.1" 200 2715
0:0:0:0:0:0:0:1 - - [08/Dec/2017:11:28:00 +0200] "GET /images/footer-bg.png HTTP/1.1" 200 936
0:0:0:0:0:0:0:1 - - [08/Dec/2017:11:28:00 +0200] "GET /images/articles/hp-moneywise.svg HTTP/1.1" 200 4628
0:0:0:0:0:0:0:1 - - [08/Dec/2017:11:28:00 +0200] "GET /images/articles/hp-bloomberg.svg HTTP/1.1" 200 3688
0:0:0:0:0:0:0:1 - - [08/Dec/2017:11:28:00 +0200] "GET /html/templates/components/menu-tree.html HTTP/1.1" 200 1578
0:0:0:0:0:0:0:1 - - [08/Dec/2017:11:28:00 +0200] "GET /images/logo.svg HTTP/1.1" 200 1099
0:0:0:0:0:0:0:1 - - [08/Dec/2017:11:28:00 +0200] "GET /images/flags/flags.png HTTP/1.1" 200 63235
0:0:0:0:0:0:0:1 - - [08/Dec/2017:11:28:01 +0200] "GET /images/security-logos/nyse.svg HTTP/1.1" 200 1488
0:0:0:0:0:0:0:1 - - [08/Dec/2017:11:28:01 +0200] "GET /images/security-logos/nasdaq.svg HTTP/1.1" 200 14336
0:0:0:0:0:0:0:1 - - [08/Dec/2017:11:28:01 +0200] "GET /html/templates/components/products-glossary.html HTTP/1.1" 200 1204
0:0:0:0:0:0:0:1 - - [08/Dec/2017:11:28:01 +0200] "GET /images/grid-overlay.png HTTP/1.1" 200 101
0:0:0:0:0:0:0:1 - - [08/Dec/2017:11:28:01 +0200] "GET /images/play-icon.png HTTP/1.1" 200 460
0:0:0:0:0:0:0:1 - - [08/Dec/2017:11:28:01 +0200] "GET /images/security-logos/deutsche-borse.svg HTTP/1.1" 200 5349
0:0:0:0:0:0:0:1 - - [08/Dec/2017:11:28:01 +0200] "GET /images/security-logos/nyse-euronext.svg HTTP/1.1" 200 4182
0:0:0:0:0:0:0:1 - - [08/Dec/2017:11:28:01 +0200] "GET /images/slides/slide-boat-lake.jpg HTTP/1.1" 200 326362
0:0:0:0:0:0:0:1 - - [08/Dec/2017:11:28:01 +0200] "GET /images/slides/slide-boat.jpg HTTP/1.1" 200 125984
0:0:0:0:0:0:0:1 - - [08/Dec/2017:11:28:01 +0200] "GET /images/icon-glossary.svg HTTP/1.1" 200 2553
0:0:0:0:0:0:0:1 - - [08/Dec/2017:11:28:01 +0200] "GET /images/slides/slide-hand.jpg HTTP/1.1" 200 64159
0:0:0:0:0:0:0:1 - - [08/Dec/2017:11:28:01 +0200] "GET /images/slides/slide-mountain-man.jpg HTTP/1.1" 200 120349
0:0:0:0:0:0:0:1 - - [08/Dec/2017:11:28:01 +0200] "GET /images/slides/slide-kids-lake.jpg HTTP/1.1" 200 297715
0:0:0:0:0:0:0:1 - - [08/Dec/2017:11:28:01 +0200] "POST /product/getAllProducts HTTP/1.1" 200 491109
0:0:0:0:0:0:0:1 - - [08/Dec/2017:11:28:01 +0200] "GET /html/templates/products/products-list-template-medium.html HTTP/1.1" 200 6299
0:0:0:0:0:0:0:1 - - [08/Dec/2017:11:28:01 +0200] "GET /html/templates/products/products-block-left-main-parameters.html HTTP/1.1" 200 2727
0:0:0:0:0:0:0:1 - - [08/Dec/2017:11:28:01 +0200] "GET /html/templates/products/products-block-left-top-main-list.html HTTP/1.1" 200 1009
0:0:0:0:0:0:0:1 - - [08/Dec/2017:11:28:01 +0200] "GET /html/templates/products/products-block-left-top-risk.html HTTP/1.1" 200 2382
0:0:0:0:0:0:0:1 - - [08/Dec/2017:11:28:01 +0200] "GET /images/gray-bg.png HTTP/1.1" 200 935
0:0:0:0:0:0:0:1 - - [08/Dec/2017:11:28:01 +0200] "GET /images/blue-circle-border.png HTTP/1.1" 200 1145
0:0:0:0:0:0:0:1 - - [08/Dec/2017:11:28:01 +0200] "GET /images/green-circle-border.png HTTP/1.1" 200 1146
0:0:0:0:0:0:0:1 - - [08/Dec/2017:11:28:01 +0200] "GET /images/how-to-icons/arrow.svg HTTP/1.1" 200 232
0:0:0:0:0:0:0:1 - - [08/Dec/2017:11:28:01 +0200] "GET /images/gray-dotted-border.png HTTP/1.1" 200 942
0:0:0:0:0:0:0:1 - - [08/Dec/2017:11:28:01 +0200] "GET /images/articles/hp-wallstreet.svg HTTP/1.1" 200 5147
0:0:0:0:0:0:0:1 - - [08/Dec/2017:11:28:01 +0200] "GET /images/assets/14.svg HTTP/1.1" 200 544
0:0:0:0:0:0:0:1 - - [08/Dec/2017:11:28:01 +0200] "GET /html/templates/products/products-block-purchased-tooltip.html HTTP/1.1" 200 169
0:0:0:0:0:0:0:1 - - [08/Dec/2017:11:28:01 +0200] "GET /images/assets/17.svg HTTP/1.1" 200 2488
0:0:0:0:0:0:0:1 - - [08/Dec/2017:11:28:01 +0200] "GET /images/assets/28.svg HTTP/1.1" 200 977
0:0:0:0:0:0:0:1 - - [08/Dec/2017:11:28:01 +0200] "GET /images/assets/13.svg HTTP/1.1" 200 331
0:0:0:0:0:0:0:1 - - [08/Dec/2017:11:28:01 +0200] "GET /images/assets/37.svg HTTP/1.1" 200 560
0:0:0:0:0:0:0:1 - - [08/Dec/2017:11:28:01 +0200] "GET /images/risk-appetite-green.svg HTTP/1.1" 200 2563
0:0:0:0:0:0:0:1 - - [08/Dec/2017:11:28:01 +0200] "GET /images/risk-appetite-blue.svg HTTP/1.1" 200 2586
