127.0.0.1 - - [22/Jul/2016:10:25:38 +0000] "GET /anycapital/ HTTP/1.1" 200 64
127.0.0.1 - - [22/Jul/2016:10:25:43 +0000] "GET /anycapital/login.html HTTP/1.1" 200 3658
127.0.0.1 - - [22/Jul/2016:10:25:43 +0000] "GET /anycapital/bootstrap/css/bootstrap.min.css HTTP/1.1" 200 121260
127.0.0.1 - - [22/Jul/2016:10:25:43 +0000] "GET /anycapital/plugins/iCheck/icheck.min.js HTTP/1.1" 200 4516
127.0.0.1 - - [22/Jul/2016:10:25:43 +0000] "GET /anycapital/plugins/iCheck/square/blue.css HTTP/1.1" 200 1611
127.0.0.1 - - [22/Jul/2016:10:25:43 +0000] "GET /anycapital/dist/css/AdminLTE.min.css HTTP/1.1" 200 89933
127.0.0.1 - - [22/Jul/2016:10:25:43 +0000] "GET /anycapital/dist/js/hello.js HTTP/1.1" 200 2066
127.0.0.1 - - [22/Jul/2016:10:25:43 +0000] "GET /anycapital/plugins/jQuery/jquery-2.2.3.min.js HTTP/1.1" 200 85659
127.0.0.1 - - [22/Jul/2016:10:25:43 +0000] "GET /anycapital/bootstrap/js/bootstrap.min.js HTTP/1.1" 200 36868
127.0.0.1 - - [22/Jul/2016:10:25:43 +0000] "GET /anycapital/dist/js/angular-bootstrap.js HTTP/1.1" 200 214174
127.0.0.1 - - [22/Jul/2016:10:25:43 +0000] "GET /anycapital/bootstrap/fonts/glyphicons-halflings-regular.woff2 HTTP/1.1" 200 18028
127.0.0.1 - - [22/Jul/2016:10:25:43 +0000] "GET /anycapital/home.html HTTP/1.1" 200 215
127.0.0.1 - - [22/Jul/2016:10:25:43 +0000] "GET /anycapital/resource/ HTTP/1.1" 200 30478
127.0.0.1 - - [22/Jul/2016:10:29:06 +0000] "GET /anycapital/login.html HTTP/1.1" 200 3658
127.0.0.1 - - [22/Jul/2016:10:29:06 +0000] "GET /anycapital/bootstrap/css/bootstrap.min.css HTTP/1.1" 200 121260
127.0.0.1 - - [22/Jul/2016:10:29:06 +0000] "GET /anycapital/plugins/jQuery/jquery-2.2.3.min.js HTTP/1.1" 200 85659
127.0.0.1 - - [22/Jul/2016:10:29:06 +0000] "GET /anycapital/plugins/iCheck/icheck.min.js HTTP/1.1" 200 4516
127.0.0.1 - - [22/Jul/2016:10:29:06 +0000] "GET /anycapital/plugins/iCheck/square/blue.css HTTP/1.1" 200 1611
127.0.0.1 - - [22/Jul/2016:10:29:06 +0000] "GET /anycapital/dist/css/AdminLTE.min.css HTTP/1.1" 200 89933
127.0.0.1 - - [22/Jul/2016:10:29:06 +0000] "GET /anycapital/dist/js/angular-bootstrap.js HTTP/1.1" 200 214174
127.0.0.1 - - [22/Jul/2016:10:29:06 +0000] "GET /anycapital/dist/js/hello.js HTTP/1.1" 200 2066
127.0.0.1 - - [22/Jul/2016:10:29:07 +0000] "GET /anycapital/bootstrap/js/bootstrap.min.js HTTP/1.1" 200 36868
127.0.0.1 - - [22/Jul/2016:10:29:07 +0000] "GET /anycapital/home.html HTTP/1.1" 200 215
127.0.0.1 - - [22/Jul/2016:10:29:07 +0000] "GET /anycapital/resource/ HTTP/1.1" 200 30478
127.0.0.1 - - [22/Jul/2016:10:29:13 +0000] "GET /anycapital/ HTTP/1.1" 200 64
127.0.0.1 - - [22/Jul/2016:10:29:17 +0000] "GET /anycapital/login.html HTTP/1.1" 200 3658
127.0.0.1 - - [22/Jul/2016:10:29:18 +0000] "GET /anycapital/bootstrap/css/bootstrap.min.css HTTP/1.1" 200 121260
127.0.0.1 - - [22/Jul/2016:10:29:18 +0000] "GET /anycapital/plugins/jQuery/jquery-2.2.3.min.js HTTP/1.1" 200 85659
127.0.0.1 - - [22/Jul/2016:10:29:18 +0000] "GET /anycapital/plugins/iCheck/icheck.min.js HTTP/1.1" 200 4516
127.0.0.1 - - [22/Jul/2016:10:29:18 +0000] "GET /anycapital/bootstrap/js/bootstrap.min.js HTTP/1.1" 200 36868
127.0.0.1 - - [22/Jul/2016:10:29:18 +0000] "GET /anycapital/plugins/iCheck/square/blue.css HTTP/1.1" 200 1611
127.0.0.1 - - [22/Jul/2016:10:29:18 +0000] "GET /anycapital/dist/css/AdminLTE.min.css HTTP/1.1" 200 89933
127.0.0.1 - - [22/Jul/2016:10:29:18 +0000] "GET /anycapital/dist/js/hello.js HTTP/1.1" 200 2066
127.0.0.1 - - [22/Jul/2016:10:29:18 +0000] "GET /anycapital/dist/js/angular-bootstrap.js HTTP/1.1" 200 214174
127.0.0.1 - - [22/Jul/2016:10:29:18 +0000] "GET /anycapital/home.html HTTP/1.1" 200 215
127.0.0.1 - - [22/Jul/2016:10:29:18 +0000] "GET /anycapital/resource/ HTTP/1.1" 200 30478
127.0.0.1 - - [22/Jul/2016:10:29:35 +0000] "POST /anycapital/j_spring_security_check HTTP/1.1" 302 -
127.0.0.1 - - [22/Jul/2016:10:29:35 +0000] "GET /anycapital/login.html?message=%27Login%20failed%27 HTTP/1.1" 200 3658
127.0.0.1 - - [22/Jul/2016:10:29:35 +0000] "GET /anycapital/bootstrap/css/bootstrap.min.css HTTP/1.1" 200 121260
127.0.0.1 - - [22/Jul/2016:10:29:35 +0000] "GET /anycapital/dist/css/AdminLTE.min.css HTTP/1.1" 200 89933
127.0.0.1 - - [22/Jul/2016:10:29:36 +0000] "GET /anycapital/plugins/jQuery/jquery-2.2.3.min.js HTTP/1.1" 200 85659
127.0.0.1 - - [22/Jul/2016:10:29:36 +0000] "GET /anycapital/bootstrap/js/bootstrap.min.js HTTP/1.1" 200 36868
127.0.0.1 - - [22/Jul/2016:10:29:36 +0000] "GET /anycapital/plugins/iCheck/icheck.min.js HTTP/1.1" 200 4516
127.0.0.1 - - [22/Jul/2016:10:29:36 +0000] "GET /anycapital/plugins/iCheck/square/blue.css HTTP/1.1" 200 1611
127.0.0.1 - - [22/Jul/2016:10:29:36 +0000] "GET /anycapital/dist/js/angular-bootstrap.js HTTP/1.1" 200 214174
127.0.0.1 - - [22/Jul/2016:10:29:37 +0000] "GET /anycapital/dist/js/hello.js HTTP/1.1" 200 2066
127.0.0.1 - - [22/Jul/2016:10:29:37 +0000] "GET /anycapital/home.html HTTP/1.1" 200 215
127.0.0.1 - - [22/Jul/2016:10:29:37 +0000] "GET /anycapital/resource/ HTTP/1.1" 200 30478
127.0.0.1 - - [22/Jul/2016:10:29:49 +0000] "POST /anycapital/j_spring_security_check HTTP/1.1" 302 -
127.0.0.1 - - [22/Jul/2016:10:29:49 +0000] "GET /anycapital/secure/starter.html HTTP/1.1" 200 15385
127.0.0.1 - - [22/Jul/2016:10:29:49 +0000] "GET /anycapital/bootstrap/css/bootstrap.min.css HTTP/1.1" 200 121260
127.0.0.1 - - [22/Jul/2016:10:29:49 +0000] "GET /anycapital/dist/css/AdminLTE.min.css HTTP/1.1" 200 89933
127.0.0.1 - - [22/Jul/2016:10:29:49 +0000] "GET /anycapital/plugins/jQuery/jquery-2.2.3.min.js HTTP/1.1" 200 85659
127.0.0.1 - - [22/Jul/2016:10:29:49 +0000] "GET /anycapital/dist/js/app.min.js HTTP/1.1" 200 9773
127.0.0.1 - - [22/Jul/2016:10:29:49 +0000] "GET /anycapital/dist/css/skins/skin-blue.min.css HTTP/1.1" 200 3037
127.0.0.1 - - [22/Jul/2016:10:29:49 +0000] "GET /anycapital/bootstrap/js/bootstrap.min.js HTTP/1.1" 200 36868
127.0.0.1 - - [22/Jul/2016:10:29:49 +0000] "GET /anycapital/secure/dist/img/user2-160x160.jpg HTTP/1.1" 404 30478
127.0.0.1 - - [22/Jul/2016:10:29:54 +0000] "GET /anycapital/login.html HTTP/1.1" 403 3658
127.0.0.1 - - [22/Jul/2016:10:29:54 +0000] "GET /anycapital/bootstrap/css/bootstrap.min.css HTTP/1.1" 200 121260
127.0.0.1 - - [22/Jul/2016:10:29:54 +0000] "GET /anycapital/plugins/iCheck/square/blue.css HTTP/1.1" 200 1611
127.0.0.1 - - [22/Jul/2016:10:29:54 +0000] "GET /anycapital/dist/css/AdminLTE.min.css HTTP/1.1" 200 89933
127.0.0.1 - - [22/Jul/2016:10:29:54 +0000] "GET /anycapital/plugins/iCheck/icheck.min.js HTTP/1.1" 200 4516
127.0.0.1 - - [22/Jul/2016:10:29:54 +0000] "GET /anycapital/bootstrap/js/bootstrap.min.js HTTP/1.1" 200 36868
127.0.0.1 - - [22/Jul/2016:10:29:54 +0000] "GET /anycapital/plugins/jQuery/jquery-2.2.3.min.js HTTP/1.1" 200 85659
127.0.0.1 - - [22/Jul/2016:10:29:54 +0000] "GET /anycapital/dist/js/hello.js HTTP/1.1" 200 2066
127.0.0.1 - - [22/Jul/2016:10:29:54 +0000] "GET /anycapital/dist/js/angular-bootstrap.js HTTP/1.1" 200 214174
127.0.0.1 - - [22/Jul/2016:10:29:54 +0000] "GET /anycapital/home.html HTTP/1.1" 200 215
127.0.0.1 - - [22/Jul/2016:10:29:55 +0000] "GET /anycapital/resource/ HTTP/1.1" 200 297
127.0.0.1 - - [22/Jul/2016:10:37:55 +0000] "GET /anycapital/login.html HTTP/1.1" 200 3658
127.0.0.1 - - [22/Jul/2016:10:37:55 +0000] "GET /anycapital/bootstrap/css/bootstrap.min.css HTTP/1.1" 200 121260
127.0.0.1 - - [22/Jul/2016:10:37:55 +0000] "GET /anycapital/dist/css/AdminLTE.min.css HTTP/1.1" 200 89933
127.0.0.1 - - [22/Jul/2016:10:37:55 +0000] "GET /anycapital/plugins/iCheck/icheck.min.js HTTP/1.1" 200 4516
127.0.0.1 - - [22/Jul/2016:10:37:55 +0000] "GET /anycapital/bootstrap/js/bootstrap.min.js HTTP/1.1" 200 36868
127.0.0.1 - - [22/Jul/2016:10:37:55 +0000] "GET /anycapital/plugins/iCheck/square/blue.css HTTP/1.1" 200 1611
127.0.0.1 - - [22/Jul/2016:10:37:55 +0000] "GET /anycapital/dist/js/angular-bootstrap.js HTTP/1.1" 200 214174
127.0.0.1 - - [22/Jul/2016:10:37:55 +0000] "GET /anycapital/dist/js/hello.js HTTP/1.1" 200 2066
127.0.0.1 - - [22/Jul/2016:10:37:55 +0000] "GET /anycapital/plugins/jQuery/jquery-2.2.3.min.js HTTP/1.1" 200 85659
127.0.0.1 - - [22/Jul/2016:10:37:55 +0000] "GET /anycapital/bootstrap/fonts/glyphicons-halflings-regular.woff2 HTTP/1.1" 200 18028
127.0.0.1 - - [22/Jul/2016:10:37:55 +0000] "GET /anycapital/home.html HTTP/1.1" 200 215
127.0.0.1 - - [22/Jul/2016:10:37:55 +0000] "GET /anycapital/resource/ HTTP/1.1" 200 30478
127.0.0.1 - - [22/Jul/2016:14:09:56 +0000] "GET /anycapital/login.html HTTP/1.1" 200 3658
127.0.0.1 - - [22/Jul/2016:14:09:56 +0000] "GET /anycapital/plugins/iCheck/square/blue.css HTTP/1.1" 200 1611
127.0.0.1 - - [22/Jul/2016:14:09:56 +0000] "GET /anycapital/plugins/iCheck/icheck.min.js HTTP/1.1" 200 4516
127.0.0.1 - - [22/Jul/2016:14:09:56 +0000] "GET /anycapital/plugins/jQuery/jquery-2.2.3.min.js HTTP/1.1" 200 85659
127.0.0.1 - - [22/Jul/2016:14:09:56 +0000] "GET /anycapital/dist/css/AdminLTE.min.css HTTP/1.1" 200 89933
127.0.0.1 - - [22/Jul/2016:14:09:56 +0000] "GET /anycapital/bootstrap/js/bootstrap.min.js HTTP/1.1" 200 36868
127.0.0.1 - - [22/Jul/2016:14:09:56 +0000] "GET /anycapital/bootstrap/css/bootstrap.min.css HTTP/1.1" 200 121260
127.0.0.1 - - [22/Jul/2016:14:09:56 +0000] "GET /anycapital/dist/js/hello.js HTTP/1.1" 200 2066
127.0.0.1 - - [22/Jul/2016:14:09:56 +0000] "GET /anycapital/dist/js/angular-bootstrap.js HTTP/1.1" 200 214174
127.0.0.1 - - [22/Jul/2016:14:09:56 +0000] "GET /anycapital/bootstrap/fonts/glyphicons-halflings-regular.woff2 HTTP/1.1" 200 18028
127.0.0.1 - - [22/Jul/2016:14:09:56 +0000] "GET /anycapital/home.html HTTP/1.1" 200 215
127.0.0.1 - - [22/Jul/2016:14:10:02 +0000] "POST /anycapital/j_spring_security_check HTTP/1.1" 302 -
127.0.0.1 - - [22/Jul/2016:14:10:02 +0000] "GET /anycapital/login.html?message=%27Login%20failed%27 HTTP/1.1" 200 3658
127.0.0.1 - - [22/Jul/2016:14:10:02 +0000] "GET /anycapital/bootstrap/css/bootstrap.min.css HTTP/1.1" 200 121260
127.0.0.1 - - [22/Jul/2016:14:10:02 +0000] "GET /anycapital/dist/css/AdminLTE.min.css HTTP/1.1" 200 89933
127.0.0.1 - - [22/Jul/2016:14:10:02 +0000] "GET /anycapital/bootstrap/js/bootstrap.min.js HTTP/1.1" 200 36868
127.0.0.1 - - [22/Jul/2016:14:10:02 +0000] "GET /anycapital/dist/js/angular-bootstrap.js HTTP/1.1" 200 214174
127.0.0.1 - - [22/Jul/2016:14:10:02 +0000] "GET /anycapital/plugins/iCheck/square/blue.css HTTP/1.1" 200 1611
127.0.0.1 - - [22/Jul/2016:14:10:02 +0000] "GET /anycapital/plugins/iCheck/icheck.min.js HTTP/1.1" 200 4516
127.0.0.1 - - [22/Jul/2016:14:10:02 +0000] "GET /anycapital/plugins/jQuery/jquery-2.2.3.min.js HTTP/1.1" 200 85659
127.0.0.1 - - [22/Jul/2016:14:10:02 +0000] "GET /anycapital/dist/js/hello.js HTTP/1.1" 200 2066
127.0.0.1 - - [22/Jul/2016:14:10:02 +0000] "GET /anycapital/home.html HTTP/1.1" 200 215
127.0.0.1 - - [22/Jul/2016:14:10:26 +0000] "GET /anycapital/resource/ HTTP/1.1" 200 8192
127.0.0.1 - - [22/Jul/2016:14:27:55 +0000] "GET /anycapital/login.html?message=%27Login%20failed%27 HTTP/1.1" 200 3658
127.0.0.1 - - [22/Jul/2016:14:27:55 +0000] "GET /anycapital/plugins/iCheck/icheck.min.js HTTP/1.1" 200 4516
127.0.0.1 - - [22/Jul/2016:14:27:55 +0000] "GET /anycapital/bootstrap/js/bootstrap.min.js HTTP/1.1" 200 36868
127.0.0.1 - - [22/Jul/2016:14:27:55 +0000] "GET /anycapital/plugins/jQuery/jquery-2.2.3.min.js HTTP/1.1" 200 85659
127.0.0.1 - - [22/Jul/2016:14:27:55 +0000] "GET /anycapital/dist/css/AdminLTE.min.css HTTP/1.1" 200 89933
127.0.0.1 - - [22/Jul/2016:14:27:55 +0000] "GET /anycapital/plugins/iCheck/square/blue.css HTTP/1.1" 200 1611
127.0.0.1 - - [22/Jul/2016:14:27:55 +0000] "GET /anycapital/bootstrap/css/bootstrap.min.css HTTP/1.1" 200 121260
127.0.0.1 - - [22/Jul/2016:14:27:55 +0000] "GET /anycapital/dist/js/hello.js HTTP/1.1" 200 2066
127.0.0.1 - - [22/Jul/2016:14:27:55 +0000] "GET /anycapital/dist/js/angular-bootstrap.js HTTP/1.1" 200 214174
127.0.0.1 - - [22/Jul/2016:14:27:55 +0000] "GET /anycapital/bootstrap/fonts/glyphicons-halflings-regular.woff2 HTTP/1.1" 200 18028
127.0.0.1 - - [22/Jul/2016:14:27:55 +0000] "GET /anycapital/home.html HTTP/1.1" 200 215
127.0.0.1 - - [22/Jul/2016:14:27:55 +0000] "GET /anycapital/resource/ HTTP/1.1" 200 30478
127.0.0.1 - - [22/Jul/2016:14:28:06 +0000] "POST /anycapital/j_spring_security_check HTTP/1.1" 302 -
127.0.0.1 - - [22/Jul/2016:14:28:06 +0000] "GET /anycapital/login.html?message=%27Login%20failed%27 HTTP/1.1" 200 3658
127.0.0.1 - - [22/Jul/2016:14:28:06 +0000] "GET /anycapital/bootstrap/css/bootstrap.min.css HTTP/1.1" 200 121260
127.0.0.1 - - [22/Jul/2016:14:28:06 +0000] "GET /anycapital/plugins/iCheck/icheck.min.js HTTP/1.1" 200 4516
127.0.0.1 - - [22/Jul/2016:14:28:06 +0000] "GET /anycapital/plugins/jQuery/jquery-2.2.3.min.js HTTP/1.1" 200 85659
127.0.0.1 - - [22/Jul/2016:14:28:06 +0000] "GET /anycapital/plugins/iCheck/square/blue.css HTTP/1.1" 200 1611
127.0.0.1 - - [22/Jul/2016:14:28:06 +0000] "GET /anycapital/bootstrap/js/bootstrap.min.js HTTP/1.1" 200 36868
127.0.0.1 - - [22/Jul/2016:14:28:06 +0000] "GET /anycapital/dist/css/AdminLTE.min.css HTTP/1.1" 200 89933
127.0.0.1 - - [22/Jul/2016:14:28:06 +0000] "GET /anycapital/dist/js/hello.js HTTP/1.1" 200 2066
127.0.0.1 - - [22/Jul/2016:14:28:06 +0000] "GET /anycapital/dist/js/angular-bootstrap.js HTTP/1.1" 200 214174
127.0.0.1 - - [22/Jul/2016:14:28:06 +0000] "GET /anycapital/home.html HTTP/1.1" 200 215
127.0.0.1 - - [22/Jul/2016:14:28:06 +0000] "GET /anycapital/resource/ HTTP/1.1" 200 30478
127.0.0.1 - - [22/Jul/2016:14:40:23 +0000] "GET /anycapital/login.html?message=%27Login%20failed%27 HTTP/1.1" 200 3658
127.0.0.1 - - [22/Jul/2016:14:40:23 +0000] "GET /anycapital/dist/css/AdminLTE.min.css HTTP/1.1" 200 89933
127.0.0.1 - - [22/Jul/2016:14:40:23 +0000] "GET /anycapital/plugins/iCheck/square/blue.css HTTP/1.1" 200 1611
127.0.0.1 - - [22/Jul/2016:14:40:23 +0000] "GET /anycapital/plugins/jQuery/jquery-2.2.3.min.js HTTP/1.1" 200 85659
127.0.0.1 - - [22/Jul/2016:14:40:23 +0000] "GET /anycapital/bootstrap/css/bootstrap.min.css HTTP/1.1" 200 121260
127.0.0.1 - - [22/Jul/2016:14:40:23 +0000] "GET /anycapital/plugins/iCheck/icheck.min.js HTTP/1.1" 200 4516
127.0.0.1 - - [22/Jul/2016:14:40:23 +0000] "GET /anycapital/dist/js/hello.js HTTP/1.1" 200 2066
127.0.0.1 - - [22/Jul/2016:14:40:23 +0000] "GET /anycapital/bootstrap/js/bootstrap.min.js HTTP/1.1" 200 36868
127.0.0.1 - - [22/Jul/2016:14:40:23 +0000] "GET /anycapital/dist/js/angular-bootstrap.js HTTP/1.1" 200 214174
127.0.0.1 - - [22/Jul/2016:14:40:23 +0000] "GET /anycapital/bootstrap/fonts/glyphicons-halflings-regular.woff2 HTTP/1.1" 200 18028
127.0.0.1 - - [22/Jul/2016:14:40:23 +0000] "GET /anycapital/home.html HTTP/1.1" 200 215
127.0.0.1 - - [22/Jul/2016:14:40:23 +0000] "GET /anycapital/resource/ HTTP/1.1" 200 30478
127.0.0.1 - - [22/Jul/2016:14:42:11 +0000] "GET /anycapital/login.html?message=%27Login%20failed%27 HTTP/1.1" 200 3658
127.0.0.1 - - [22/Jul/2016:14:42:11 +0000] "GET /anycapital/bootstrap/css/bootstrap.min.css HTTP/1.1" 200 121260
127.0.0.1 - - [22/Jul/2016:14:42:12 +0000] "GET /anycapital/plugins/jQuery/jquery-2.2.3.min.js HTTP/1.1" 200 85659
127.0.0.1 - - [22/Jul/2016:14:42:12 +0000] "GET /anycapital/plugins/iCheck/square/blue.css HTTP/1.1" 200 1611
127.0.0.1 - - [22/Jul/2016:14:42:12 +0000] "GET /anycapital/plugins/iCheck/icheck.min.js HTTP/1.1" 200 4516
127.0.0.1 - - [22/Jul/2016:14:42:12 +0000] "GET /anycapital/dist/css/AdminLTE.min.css HTTP/1.1" 200 89933
127.0.0.1 - - [22/Jul/2016:14:42:12 +0000] "GET /anycapital/bootstrap/js/bootstrap.min.js HTTP/1.1" 200 36868
127.0.0.1 - - [22/Jul/2016:14:42:12 +0000] "GET /anycapital/dist/js/hello.js HTTP/1.1" 200 2066
127.0.0.1 - - [22/Jul/2016:14:42:12 +0000] "GET /anycapital/dist/js/angular-bootstrap.js HTTP/1.1" 200 214174
127.0.0.1 - - [22/Jul/2016:14:42:12 +0000] "GET /anycapital/bootstrap/fonts/glyphicons-halflings-regular.woff2 HTTP/1.1" 200 18028
127.0.0.1 - - [22/Jul/2016:14:42:12 +0000] "GET /anycapital/home.html HTTP/1.1" 200 215
127.0.0.1 - - [22/Jul/2016:14:42:17 +0000] "GET /anycapital/login.html HTTP/1.1" 200 3658
127.0.0.1 - - [22/Jul/2016:14:42:17 +0000] "GET /anycapital/bootstrap/css/bootstrap.min.css HTTP/1.1" 200 121260
127.0.0.1 - - [22/Jul/2016:14:42:17 +0000] "GET /anycapital/plugins/iCheck/square/blue.css HTTP/1.1" 200 1611
127.0.0.1 - - [22/Jul/2016:14:42:17 +0000] "GET /anycapital/bootstrap/js/bootstrap.min.js HTTP/1.1" 200 36868
127.0.0.1 - - [22/Jul/2016:14:42:17 +0000] "GET /anycapital/plugins/jQuery/jquery-2.2.3.min.js HTTP/1.1" 200 85659
127.0.0.1 - - [22/Jul/2016:14:42:17 +0000] "GET /anycapital/plugins/iCheck/icheck.min.js HTTP/1.1" 200 4516
127.0.0.1 - - [22/Jul/2016:14:42:17 +0000] "GET /anycapital/dist/css/AdminLTE.min.css HTTP/1.1" 200 89933
127.0.0.1 - - [22/Jul/2016:14:42:17 +0000] "GET /anycapital/dist/js/angular-bootstrap.js HTTP/1.1" 200 214174
127.0.0.1 - - [22/Jul/2016:14:42:17 +0000] "GET /anycapital/dist/js/hello.js HTTP/1.1" 200 2066
127.0.0.1 - - [22/Jul/2016:14:42:17 +0000] "GET /anycapital/home.html HTTP/1.1" 200 215
127.0.0.1 - - [22/Jul/2016:14:42:22 +0000] "GET /anycapital/resource/ HTTP/1.1" 200 12
127.0.0.1 - - [22/Jul/2016:14:42:33 +0000] "GET /anycapital/resource/ HTTP/1.1" 200 12
127.0.0.1 - - [22/Jul/2016:14:45:09 +0000] "GET /anycapital/ HTTP/1.1" 200 64
127.0.0.1 - - [22/Jul/2016:14:45:14 +0000] "GET /anycapital/login.html HTTP/1.1" 200 3658
127.0.0.1 - - [22/Jul/2016:14:45:14 +0000] "GET /anycapital/dist/css/AdminLTE.min.css HTTP/1.1" 200 89933
127.0.0.1 - - [22/Jul/2016:14:45:14 +0000] "GET /anycapital/plugins/iCheck/square/blue.css HTTP/1.1" 200 1611
127.0.0.1 - - [22/Jul/2016:14:45:14 +0000] "GET /anycapital/bootstrap/js/bootstrap.min.js HTTP/1.1" 200 36868
127.0.0.1 - - [22/Jul/2016:14:45:14 +0000] "GET /anycapital/plugins/jQuery/jquery-2.2.3.min.js HTTP/1.1" 200 85659
127.0.0.1 - - [22/Jul/2016:14:45:14 +0000] "GET /anycapital/plugins/iCheck/icheck.min.js HTTP/1.1" 200 4516
127.0.0.1 - - [22/Jul/2016:14:45:14 +0000] "GET /anycapital/bootstrap/css/bootstrap.min.css HTTP/1.1" 200 121260
127.0.0.1 - - [22/Jul/2016:14:45:14 +0000] "GET /anycapital/dist/js/hello.js HTTP/1.1" 200 2066
127.0.0.1 - - [22/Jul/2016:14:45:14 +0000] "GET /anycapital/dist/js/angular-bootstrap.js HTTP/1.1" 200 214174
127.0.0.1 - - [22/Jul/2016:14:45:15 +0000] "GET /anycapital/bootstrap/fonts/glyphicons-halflings-regular.woff2 HTTP/1.1" 200 18028
127.0.0.1 - - [22/Jul/2016:14:45:15 +0000] "GET /anycapital/home.html HTTP/1.1" 200 215
127.0.0.1 - - [22/Jul/2016:14:45:17 +0000] "GET /anycapital/resource/ HTTP/1.1" 200 12
127.0.0.1 - - [22/Jul/2016:14:45:41 +0000] "POST /anycapital/j_spring_security_check HTTP/1.1" 302 -
127.0.0.1 - - [22/Jul/2016:14:45:41 +0000] "GET /anycapital/login.html?message=%27Login%20failed%27 HTTP/1.1" 200 3658
127.0.0.1 - - [22/Jul/2016:14:45:41 +0000] "GET /anycapital/bootstrap/css/bootstrap.min.css HTTP/1.1" 200 121260
127.0.0.1 - - [22/Jul/2016:14:45:41 +0000] "GET /anycapital/dist/css/AdminLTE.min.css HTTP/1.1" 200 89933
127.0.0.1 - - [22/Jul/2016:14:45:41 +0000] "GET /anycapital/plugins/jQuery/jquery-2.2.3.min.js HTTP/1.1" 200 85659
127.0.0.1 - - [22/Jul/2016:14:45:41 +0000] "GET /anycapital/plugins/iCheck/icheck.min.js HTTP/1.1" 200 4516
127.0.0.1 - - [22/Jul/2016:14:45:41 +0000] "GET /anycapital/bootstrap/js/bootstrap.min.js HTTP/1.1" 200 36868
127.0.0.1 - - [22/Jul/2016:14:45:41 +0000] "GET /anycapital/dist/js/hello.js HTTP/1.1" 200 2066
127.0.0.1 - - [22/Jul/2016:14:45:41 +0000] "GET /anycapital/dist/js/angular-bootstrap.js HTTP/1.1" 200 214174
127.0.0.1 - - [22/Jul/2016:14:45:42 +0000] "GET /anycapital/plugins/iCheck/square/blue.css HTTP/1.1" 200 1611
127.0.0.1 - - [22/Jul/2016:14:45:42 +0000] "GET /anycapital/home.html HTTP/1.1" 200 215
127.0.0.1 - - [22/Jul/2016:14:46:03 +0000] "GET /anycapital/resource/ HTTP/1.1" 200 12
127.0.0.1 - - [22/Jul/2016:14:47:17 +0000] "GET /anycapital/login.html?message=%27Login%20failed%27 HTTP/1.1" 200 3658
127.0.0.1 - - [22/Jul/2016:14:47:17 +0000] "GET /anycapital/plugins/iCheck/square/blue.css HTTP/1.1" 200 1611
127.0.0.1 - - [22/Jul/2016:14:47:17 +0000] "GET /anycapital/dist/css/AdminLTE.min.css HTTP/1.1" 200 89933
127.0.0.1 - - [22/Jul/2016:14:47:17 +0000] "GET /anycapital/plugins/iCheck/icheck.min.js HTTP/1.1" 200 4516
127.0.0.1 - - [22/Jul/2016:14:47:17 +0000] "GET /anycapital/bootstrap/js/bootstrap.min.js HTTP/1.1" 200 36868
127.0.0.1 - - [22/Jul/2016:14:47:17 +0000] "GET /anycapital/plugins/jQuery/jquery-2.2.3.min.js HTTP/1.1" 200 85659
127.0.0.1 - - [22/Jul/2016:14:47:17 +0000] "GET /anycapital/bootstrap/css/bootstrap.min.css HTTP/1.1" 200 121260
127.0.0.1 - - [22/Jul/2016:14:47:17 +0000] "GET /anycapital/dist/js/hello.js HTTP/1.1" 200 2066
127.0.0.1 - - [22/Jul/2016:14:47:17 +0000] "GET /anycapital/dist/js/angular-bootstrap.js HTTP/1.1" 200 214174
127.0.0.1 - - [22/Jul/2016:14:47:17 +0000] "GET /anycapital/bootstrap/fonts/glyphicons-halflings-regular.woff2 HTTP/1.1" 200 18028
127.0.0.1 - - [22/Jul/2016:14:47:17 +0000] "GET /anycapital/home.html HTTP/1.1" 200 215
127.0.0.1 - - [22/Jul/2016:14:47:41 +0000] "GET /anycapital/resource/ HTTP/1.1" 200 12
127.0.0.1 - - [22/Jul/2016:14:47:47 +0000] "POST /anycapital/j_spring_security_check HTTP/1.1" 302 -
127.0.0.1 - - [22/Jul/2016:14:47:47 +0000] "GET /anycapital/login.html?message=%27Login%20failed%27 HTTP/1.1" 200 3658
127.0.0.1 - - [22/Jul/2016:14:47:47 +0000] "GET /anycapital/bootstrap/css/bootstrap.min.css HTTP/1.1" 200 121260
127.0.0.1 - - [22/Jul/2016:14:47:47 +0000] "GET /anycapital/plugins/iCheck/square/blue.css HTTP/1.1" 200 1611
127.0.0.1 - - [22/Jul/2016:14:47:47 +0000] "GET /anycapital/plugins/iCheck/icheck.min.js HTTP/1.1" 200 4516
127.0.0.1 - - [22/Jul/2016:14:47:47 +0000] "GET /anycapital/plugins/jQuery/jquery-2.2.3.min.js HTTP/1.1" 200 85659
127.0.0.1 - - [22/Jul/2016:14:47:48 +0000] "GET /anycapital/dist/css/AdminLTE.min.css HTTP/1.1" 200 89933
127.0.0.1 - - [22/Jul/2016:14:47:48 +0000] "GET /anycapital/bootstrap/js/bootstrap.min.js HTTP/1.1" 200 36868
127.0.0.1 - - [22/Jul/2016:14:47:48 +0000] "GET /anycapital/dist/js/angular-bootstrap.js HTTP/1.1" 200 214174
127.0.0.1 - - [22/Jul/2016:14:47:48 +0000] "GET /anycapital/dist/js/hello.js HTTP/1.1" 200 2066
127.0.0.1 - - [22/Jul/2016:14:47:48 +0000] "GET /anycapital/home.html HTTP/1.1" 200 215
127.0.0.1 - - [22/Jul/2016:14:47:54 +0000] "GET /anycapital/resource/ HTTP/1.1" 200 12
127.0.0.1 - - [22/Jul/2016:14:51:54 +0000] "GET /anycapital/login.html?message=%27Login%20failed%27 HTTP/1.1" 200 3658
127.0.0.1 - - [22/Jul/2016:14:51:54 +0000] "GET /anycapital/bootstrap/css/bootstrap.min.css HTTP/1.1" 200 121260
127.0.0.1 - - [22/Jul/2016:14:51:54 +0000] "GET /anycapital/plugins/iCheck/square/blue.css HTTP/1.1" 200 1611
127.0.0.1 - - [22/Jul/2016:14:51:54 +0000] "GET /anycapital/dist/css/AdminLTE.min.css HTTP/1.1" 200 89933
127.0.0.1 - - [22/Jul/2016:14:51:54 +0000] "GET /anycapital/dist/js/hello.js HTTP/1.1" 200 2066
127.0.0.1 - - [22/Jul/2016:14:51:54 +0000] "GET /anycapital/plugins/jQuery/jquery-2.2.3.min.js HTTP/1.1" 200 85659
127.0.0.1 - - [22/Jul/2016:14:51:54 +0000] "GET /anycapital/plugins/iCheck/icheck.min.js HTTP/1.1" 200 4516
127.0.0.1 - - [22/Jul/2016:14:51:55 +0000] "GET /anycapital/dist/js/angular-bootstrap.js HTTP/1.1" 200 214174
127.0.0.1 - - [22/Jul/2016:14:51:55 +0000] "GET /anycapital/bootstrap/js/bootstrap.min.js HTTP/1.1" 200 36868
127.0.0.1 - - [22/Jul/2016:14:51:55 +0000] "GET /anycapital/bootstrap/fonts/glyphicons-halflings-regular.woff2 HTTP/1.1" 200 18028
127.0.0.1 - - [22/Jul/2016:14:51:55 +0000] "GET /anycapital/home.html HTTP/1.1" 200 215
127.0.0.1 - - [22/Jul/2016:14:52:06 +0000] "GET /anycapital/resource/ HTTP/1.1" 200 12
127.0.0.1 - - [22/Jul/2016:14:52:28 +0000] "POST /anycapital/j_spring_security_check HTTP/1.1" 302 -
127.0.0.1 - - [22/Jul/2016:14:52:28 +0000] "GET /anycapital/login.html?message=%27Login%20failed%27 HTTP/1.1" 200 3658
127.0.0.1 - - [22/Jul/2016:14:52:29 +0000] "GET /anycapital/dist/css/AdminLTE.min.css HTTP/1.1" 200 89933
127.0.0.1 - - [22/Jul/2016:14:52:29 +0000] "GET /anycapital/bootstrap/css/bootstrap.min.css HTTP/1.1" 200 121260
127.0.0.1 - - [22/Jul/2016:14:52:29 +0000] "GET /anycapital/plugins/iCheck/square/blue.css HTTP/1.1" 200 1611
127.0.0.1 - - [22/Jul/2016:14:52:29 +0000] "GET /anycapital/plugins/iCheck/icheck.min.js HTTP/1.1" 200 4516
127.0.0.1 - - [22/Jul/2016:14:52:29 +0000] "GET /anycapital/bootstrap/js/bootstrap.min.js HTTP/1.1" 200 36868
127.0.0.1 - - [22/Jul/2016:14:52:29 +0000] "GET /anycapital/plugins/jQuery/jquery-2.2.3.min.js HTTP/1.1" 200 85659
127.0.0.1 - - [22/Jul/2016:14:52:29 +0000] "GET /anycapital/dist/js/hello.js HTTP/1.1" 200 2066
127.0.0.1 - - [22/Jul/2016:14:52:29 +0000] "GET /anycapital/dist/js/angular-bootstrap.js HTTP/1.1" 200 214174
127.0.0.1 - - [22/Jul/2016:14:52:29 +0000] "GET /anycapital/home.html HTTP/1.1" 200 215
127.0.0.1 - - [22/Jul/2016:14:52:29 +0000] "GET /anycapital/bootstrap/fonts/glyphicons-halflings-regular.woff2 HTTP/1.1" 200 18028
127.0.0.1 - - [22/Jul/2016:14:52:45 +0000] "GET /anycapital/resource/ HTTP/1.1" 200 12
127.0.0.1 - - [22/Jul/2016:14:55:17 +0000] "GET /anycapital/login.html?message=%27Login%20failed%27 HTTP/1.1" 200 3658
127.0.0.1 - - [22/Jul/2016:14:55:17 +0000] "GET /anycapital/bootstrap/css/bootstrap.min.css HTTP/1.1" 200 121260
127.0.0.1 - - [22/Jul/2016:14:55:17 +0000] "GET /anycapital/plugins/iCheck/square/blue.css HTTP/1.1" 200 1611
127.0.0.1 - - [22/Jul/2016:14:55:17 +0000] "GET /anycapital/plugins/iCheck/icheck.min.js HTTP/1.1" 200 4516
127.0.0.1 - - [22/Jul/2016:14:55:17 +0000] "GET /anycapital/plugins/jQuery/jquery-2.2.3.min.js HTTP/1.1" 200 85659
127.0.0.1 - - [22/Jul/2016:14:55:17 +0000] "GET /anycapital/bootstrap/js/bootstrap.min.js HTTP/1.1" 200 36868
127.0.0.1 - - [22/Jul/2016:14:55:17 +0000] "GET /anycapital/dist/js/hello.js HTTP/1.1" 200 2066
127.0.0.1 - - [22/Jul/2016:14:55:17 +0000] "GET /anycapital/dist/css/AdminLTE.min.css HTTP/1.1" 200 89933
127.0.0.1 - - [22/Jul/2016:14:55:17 +0000] "GET /anycapital/dist/js/angular-bootstrap.js HTTP/1.1" 200 214174
127.0.0.1 - - [22/Jul/2016:14:55:18 +0000] "GET /anycapital/home.html HTTP/1.1" 200 215
127.0.0.1 - - [22/Jul/2016:14:55:18 +0000] "GET /anycapital/bootstrap/fonts/glyphicons-halflings-regular.woff2 HTTP/1.1" 200 18028
127.0.0.1 - - [22/Jul/2016:14:55:30 +0000] "GET /anycapital/resource/ HTTP/1.1" 200 12
127.0.0.1 - - [22/Jul/2016:15:00:46 +0000] "POST /anycapital/j_spring_security_check HTTP/1.1" 302 -
127.0.0.1 - - [22/Jul/2016:15:00:46 +0000] "GET /anycapital/login.html?message=%27Login%20failed%27 HTTP/1.1" 200 3658
127.0.0.1 - - [22/Jul/2016:15:00:46 +0000] "GET /anycapital/plugins/jQuery/jquery-2.2.3.min.js HTTP/1.1" 200 85659
127.0.0.1 - - [22/Jul/2016:15:00:46 +0000] "GET /anycapital/plugins/iCheck/square/blue.css HTTP/1.1" 200 1611
127.0.0.1 - - [22/Jul/2016:15:00:46 +0000] "GET /anycapital/bootstrap/js/bootstrap.min.js HTTP/1.1" 200 36868
127.0.0.1 - - [22/Jul/2016:15:00:46 +0000] "GET /anycapital/dist/css/AdminLTE.min.css HTTP/1.1" 200 89933
127.0.0.1 - - [22/Jul/2016:15:00:46 +0000] "GET /anycapital/bootstrap/css/bootstrap.min.css HTTP/1.1" 200 121260
127.0.0.1 - - [22/Jul/2016:15:00:46 +0000] "GET /anycapital/plugins/iCheck/icheck.min.js HTTP/1.1" 200 4516
127.0.0.1 - - [22/Jul/2016:15:00:46 +0000] "GET /anycapital/dist/js/angular-bootstrap.js HTTP/1.1" 200 214174
127.0.0.1 - - [22/Jul/2016:15:00:46 +0000] "GET /anycapital/dist/js/hello.js HTTP/1.1" 200 2066
127.0.0.1 - - [22/Jul/2016:15:00:46 +0000] "GET /anycapital/home.html HTTP/1.1" 200 215
127.0.0.1 - - [22/Jul/2016:15:00:46 +0000] "GET /anycapital/bootstrap/fonts/glyphicons-halflings-regular.woff2 HTTP/1.1" 200 18028
127.0.0.1 - - [22/Jul/2016:15:00:49 +0000] "GET /anycapital/resource/ HTTP/1.1" 200 12
127.0.0.1 - - [22/Jul/2016:15:04:30 +0000] "GET /anycapital/j_spring_security_check HTTP/1.1" 404 30478
127.0.0.1 - - [22/Jul/2016:15:04:30 +0000] "GET /anycapital/bootstrap/css/bootstrap.min.css HTTP/1.1" 200 121260
127.0.0.1 - - [22/Jul/2016:15:04:30 +0000] "GET /anycapital/plugins/jQuery/jquery-2.2.3.min.js HTTP/1.1" 200 85659
127.0.0.1 - - [22/Jul/2016:15:04:30 +0000] "GET /anycapital/plugins/fastclick/fastclick.js HTTP/1.1" 200 25965
127.0.0.1 - - [22/Jul/2016:15:04:30 +0000] "GET /anycapital/dist/css/AdminLTE.min.css HTTP/1.1" 200 89933
127.0.0.1 - - [22/Jul/2016:15:04:30 +0000] "GET /anycapital/bootstrap/js/bootstrap.min.js HTTP/1.1" 200 36868
127.0.0.1 - - [22/Jul/2016:15:04:30 +0000] "GET /anycapital/dist/css/skins/_all-skins.min.css HTTP/1.1" 200 40757
127.0.0.1 - - [22/Jul/2016:15:04:30 +0000] "GET /dist/img/user4-128x128.jpg HTTP/1.1" 404 1044
127.0.0.1 - - [22/Jul/2016:15:04:30 +0000] "GET /dist/img/user2-160x160.jpg HTTP/1.1" 404 1044
127.0.0.1 - - [22/Jul/2016:15:04:30 +0000] "GET /dist/img/user3-128x128.jpg HTTP/1.1" 404 1044
127.0.0.1 - - [22/Jul/2016:15:04:30 +0000] "GET /anycapital/dist/js/app.min.js HTTP/1.1" 200 9773
127.0.0.1 - - [22/Jul/2016:15:04:30 +0000] "GET /anycapital/dist/js/demo.js HTTP/1.1" 200 17319
127.0.0.1 - - [22/Jul/2016:15:04:44 +0000] "GET /anycapital/login.html HTTP/1.1" 200 3658
127.0.0.1 - - [22/Jul/2016:15:04:44 +0000] "GET /anycapital/bootstrap/css/bootstrap.min.css HTTP/1.1" 200 121260
127.0.0.1 - - [22/Jul/2016:15:04:44 +0000] "GET /anycapital/dist/css/AdminLTE.min.css HTTP/1.1" 200 89933
127.0.0.1 - - [22/Jul/2016:15:04:44 +0000] "GET /anycapital/plugins/jQuery/jquery-2.2.3.min.js HTTP/1.1" 200 85659
127.0.0.1 - - [22/Jul/2016:15:04:44 +0000] "GET /anycapital/plugins/iCheck/icheck.min.js HTTP/1.1" 200 4516
127.0.0.1 - - [22/Jul/2016:15:04:44 +0000] "GET /anycapital/plugins/iCheck/square/blue.css HTTP/1.1" 200 1611
127.0.0.1 - - [22/Jul/2016:15:04:44 +0000] "GET /anycapital/bootstrap/js/bootstrap.min.js HTTP/1.1" 200 36868
127.0.0.1 - - [22/Jul/2016:15:04:44 +0000] "GET /anycapital/dist/js/hello.js HTTP/1.1" 200 2066
127.0.0.1 - - [22/Jul/2016:15:04:44 +0000] "GET /anycapital/dist/js/angular-bootstrap.js HTTP/1.1" 200 214174
127.0.0.1 - - [22/Jul/2016:15:04:44 +0000] "GET /anycapital/bootstrap/fonts/glyphicons-halflings-regular.woff2 HTTP/1.1" 200 18028
127.0.0.1 - - [22/Jul/2016:15:04:44 +0000] "GET /anycapital/home.html HTTP/1.1" 200 215
127.0.0.1 - - [22/Jul/2016:15:04:51 +0000] "GET /anycapital/resource/ HTTP/1.1" 200 12
127.0.0.1 - - [22/Jul/2016:15:06:26 +0000] "POST /anycapital/j_spring_security_check HTTP/1.1" 302 -
127.0.0.1 - - [22/Jul/2016:15:06:26 +0000] "GET /anycapital/login.html?message=%27Login%20failed%27 HTTP/1.1" 200 3658
127.0.0.1 - - [22/Jul/2016:15:06:26 +0000] "GET /anycapital/bootstrap/css/bootstrap.min.css HTTP/1.1" 200 121260
127.0.0.1 - - [22/Jul/2016:15:06:26 +0000] "GET /anycapital/dist/css/AdminLTE.min.css HTTP/1.1" 200 89933
127.0.0.1 - - [22/Jul/2016:15:06:26 +0000] "GET /anycapital/plugins/iCheck/icheck.min.js HTTP/1.1" 200 4516
127.0.0.1 - - [22/Jul/2016:15:06:26 +0000] "GET /anycapital/plugins/iCheck/square/blue.css HTTP/1.1" 200 1611
127.0.0.1 - - [22/Jul/2016:15:06:26 +0000] "GET /anycapital/plugins/jQuery/jquery-2.2.3.min.js HTTP/1.1" 200 85659
127.0.0.1 - - [22/Jul/2016:15:06:26 +0000] "GET /anycapital/dist/js/angular-bootstrap.js HTTP/1.1" 200 214174
127.0.0.1 - - [22/Jul/2016:15:06:26 +0000] "GET /anycapital/dist/js/hello.js HTTP/1.1" 200 2066
127.0.0.1 - - [22/Jul/2016:15:06:27 +0000] "GET /anycapital/bootstrap/js/bootstrap.min.js HTTP/1.1" 200 36868
127.0.0.1 - - [22/Jul/2016:15:06:27 +0000] "GET /anycapital/home.html HTTP/1.1" 200 215
127.0.0.1 - - [22/Jul/2016:15:06:30 +0000] "GET /anycapital/resource/ HTTP/1.1" 200 12
127.0.0.1 - - [22/Jul/2016:15:06:40 +0000] "POST /anycapital/j_spring_security_check HTTP/1.1" 302 -
127.0.0.1 - - [22/Jul/2016:15:06:40 +0000] "GET /anycapital/login.html?message=%27Login%20failed%27 HTTP/1.1" 200 3658
127.0.0.1 - - [22/Jul/2016:15:06:40 +0000] "GET /anycapital/bootstrap/css/bootstrap.min.css HTTP/1.1" 200 121260
127.0.0.1 - - [22/Jul/2016:15:06:40 +0000] "GET /anycapital/dist/css/AdminLTE.min.css HTTP/1.1" 200 89933
127.0.0.1 - - [22/Jul/2016:15:06:40 +0000] "GET /anycapital/plugins/iCheck/square/blue.css HTTP/1.1" 200 1611
127.0.0.1 - - [22/Jul/2016:15:06:40 +0000] "GET /anycapital/plugins/iCheck/icheck.min.js HTTP/1.1" 200 4516
127.0.0.1 - - [22/Jul/2016:15:06:40 +0000] "GET /anycapital/plugins/jQuery/jquery-2.2.3.min.js HTTP/1.1" 200 85659
127.0.0.1 - - [22/Jul/2016:15:06:40 +0000] "GET /anycapital/bootstrap/js/bootstrap.min.js HTTP/1.1" 200 36868
127.0.0.1 - - [22/Jul/2016:15:06:40 +0000] "GET /anycapital/dist/js/hello.js HTTP/1.1" 200 2066
127.0.0.1 - - [22/Jul/2016:15:06:40 +0000] "GET /anycapital/dist/js/angular-bootstrap.js HTTP/1.1" 200 214174
127.0.0.1 - - [22/Jul/2016:15:06:41 +0000] "GET /anycapital/home.html HTTP/1.1" 200 215
127.0.0.1 - - [22/Jul/2016:15:06:43 +0000] "GET /anycapital/resource/ HTTP/1.1" 200 12
127.0.0.1 - - [22/Jul/2016:15:07:13 +0000] "POST /anycapital/j_spring_security_check HTTP/1.1" 302 -
127.0.0.1 - - [22/Jul/2016:15:07:13 +0000] "GET /anycapital/login.html?message=%27Login%20failed%27 HTTP/1.1" 200 3658
127.0.0.1 - - [22/Jul/2016:15:07:13 +0000] "GET /anycapital/bootstrap/css/bootstrap.min.css HTTP/1.1" 200 121260
127.0.0.1 - - [22/Jul/2016:15:07:13 +0000] "GET /anycapital/dist/css/AdminLTE.min.css HTTP/1.1" 200 89933
127.0.0.1 - - [22/Jul/2016:15:07:13 +0000] "GET /anycapital/plugins/jQuery/jquery-2.2.3.min.js HTTP/1.1" 200 85659
127.0.0.1 - - [22/Jul/2016:15:07:13 +0000] "GET /anycapital/bootstrap/js/bootstrap.min.js HTTP/1.1" 200 36868
127.0.0.1 - - [22/Jul/2016:15:07:13 +0000] "GET /anycapital/plugins/iCheck/square/blue.css HTTP/1.1" 200 1611
127.0.0.1 - - [22/Jul/2016:15:07:13 +0000] "GET /anycapital/plugins/iCheck/icheck.min.js HTTP/1.1" 200 4516
127.0.0.1 - - [22/Jul/2016:15:07:13 +0000] "GET /anycapital/dist/js/hello.js HTTP/1.1" 200 2066
127.0.0.1 - - [22/Jul/2016:15:07:13 +0000] "GET /anycapital/dist/js/angular-bootstrap.js HTTP/1.1" 200 214174
127.0.0.1 - - [22/Jul/2016:15:07:13 +0000] "GET /anycapital/home.html HTTP/1.1" 200 215
127.0.0.1 - - [22/Jul/2016:15:08:44 +0000] "GET /anycapital/login.html?message=%27Login%20failed%27 HTTP/1.1" 200 3658
127.0.0.1 - - [22/Jul/2016:15:08:44 +0000] "GET /anycapital/bootstrap/css/bootstrap.min.css HTTP/1.1" 200 121260
127.0.0.1 - - [22/Jul/2016:15:08:44 +0000] "GET /anycapital/plugins/iCheck/square/blue.css HTTP/1.1" 200 1611
127.0.0.1 - - [22/Jul/2016:15:08:44 +0000] "GET /anycapital/plugins/jQuery/jquery-2.2.3.min.js HTTP/1.1" 200 85659
127.0.0.1 - - [22/Jul/2016:15:08:44 +0000] "GET /anycapital/plugins/iCheck/icheck.min.js HTTP/1.1" 200 4516
127.0.0.1 - - [22/Jul/2016:15:08:44 +0000] "GET /anycapital/bootstrap/js/bootstrap.min.js HTTP/1.1" 200 36868
127.0.0.1 - - [22/Jul/2016:15:08:44 +0000] "GET /anycapital/dist/css/AdminLTE.min.css HTTP/1.1" 200 89933
127.0.0.1 - - [22/Jul/2016:15:08:44 +0000] "GET /anycapital/dist/js/hello.js HTTP/1.1" 200 2066
127.0.0.1 - - [22/Jul/2016:15:08:44 +0000] "GET /anycapital/dist/js/angular-bootstrap.js HTTP/1.1" 200 214174
127.0.0.1 - - [22/Jul/2016:15:08:45 +0000] "GET /anycapital/home.html HTTP/1.1" 200 215
127.0.0.1 - - [22/Jul/2016:15:08:45 +0000] "GET /anycapital/bootstrap/fonts/glyphicons-halflings-regular.woff2 HTTP/1.1" 200 18028
127.0.0.1 - - [22/Jul/2016:15:08:47 +0000] "GET /anycapital/resource/ HTTP/1.1" 200 12
127.0.0.1 - - [22/Jul/2016:15:45:44 +0000] "POST /anycapital/j_spring_security_check HTTP/1.1" 302 -
127.0.0.1 - - [22/Jul/2016:15:45:44 +0000] "GET /anycapital/login.html?message=%27Login%20failed%27 HTTP/1.1" 200 3658
127.0.0.1 - - [22/Jul/2016:15:45:44 +0000] "GET /anycapital/plugins/iCheck/square/blue.css HTTP/1.1" 200 1611
127.0.0.1 - - [22/Jul/2016:15:45:44 +0000] "GET /anycapital/plugins/iCheck/icheck.min.js HTTP/1.1" 200 4516
127.0.0.1 - - [22/Jul/2016:15:45:44 +0000] "GET /anycapital/bootstrap/css/bootstrap.min.css HTTP/1.1" 200 121260
127.0.0.1 - - [22/Jul/2016:15:45:44 +0000] "GET /anycapital/plugins/jQuery/jquery-2.2.3.min.js HTTP/1.1" 200 85659
127.0.0.1 - - [22/Jul/2016:15:45:44 +0000] "GET /anycapital/dist/js/angular-bootstrap.js HTTP/1.1" 200 214174
127.0.0.1 - - [22/Jul/2016:15:45:44 +0000] "GET /anycapital/dist/js/hello.js HTTP/1.1" 200 2066
127.0.0.1 - - [22/Jul/2016:15:45:44 +0000] "GET /anycapital/dist/css/AdminLTE.min.css HTTP/1.1" 200 89933
127.0.0.1 - - [22/Jul/2016:15:45:44 +0000] "GET /anycapital/bootstrap/js/bootstrap.min.js HTTP/1.1" 200 36868
127.0.0.1 - - [22/Jul/2016:15:45:45 +0000] "GET /anycapital/bootstrap/fonts/glyphicons-halflings-regular.woff2 HTTP/1.1" 200 18028
127.0.0.1 - - [22/Jul/2016:15:45:45 +0000] "GET /anycapital/home.html HTTP/1.1" 200 215
127.0.0.1 - - [22/Jul/2016:15:45:49 +0000] "GET /anycapital/resource/ HTTP/1.1" 200 12
